<?xml version="1.0" encoding="utf-8"?>
<!-- Generator: Adobe Illustrator 16.0.0, SVG Export Plug-In . SVG Version: 6.00 Build 0)  -->
<!DOCTYPE svg PUBLIC "-//W3C//DTD SVG 1.1//EN" "http://www.w3.org/Graphics/SVG/1.1/DTD/svg11.dtd">
<svg version="1.1" id="Layer_1" xmlns="http://www.w3.org/2000/svg" xmlns:xlink="http://www.w3.org/1999/xlink" x="0px" y="0px"
	 width="399.143px" height="119.714px" viewBox="0 0 399.143 119.714" enable-background="new 0 0 399.143 119.714"
	 xml:space="preserve">
<g>
	<g>
		<g>
			<path fill="#4D4D4F" d="M47.551,92.08V67.649c0-8.144-7.408-12.306-15.206-12.306c-9.455,0-15.401,6.967-15.401,15.202
				c0,8.053,6.336,14.839,15.303,14.839c4.874,0,8.87-2.533,11.794-5.972v9.41c-3.412,2.353-6.726,4.163-12.671,4.163
				c-13.451,0-23.004-10.315-23.004-23.074c0-12.396,9.163-22.168,24.173-22.168c14.426,0,23.588,8.144,23.588,20.63V92.08H47.551z"
				/>
			<path fill="#4D4D4F" d="M62.753,84.479h23.979c3.997,0,5.556-1.448,5.556-4.162c0-7.963-29.535-4.887-29.535-19.907
				c0-7.691,5.751-11.763,15.986-11.763h20.177v7.601H77.277c-4.191,0-5.361,1.086-5.556,3.8c0,7.51,29.534,4.343,29.534,19.907
				c0,8.234-6.238,12.125-14.523,12.125H62.753V84.479z"/>
			<path fill="#4D4D4F" d="M130.396,47.742c12.964,0,24.271,9.229,24.271,22.622c0,13.392-11.307,22.621-24.271,22.621
				s-24.271-9.229-24.271-22.621C106.125,56.972,117.432,47.742,130.396,47.742z M130.396,85.383c8.87,0,15.303-6.152,15.303-15.02
				c0-8.868-6.433-15.021-15.303-15.021s-15.303,6.153-15.303,15.021C115.092,79.231,121.525,85.383,130.396,85.383z"/>
			<path fill="#4D4D4F" d="M161.388,111.625V71.63c0-14.297,9.845-23.888,23.588-23.888c15.206,0,24.174,10.858,24.174,23.707
				c0,12.125-10.527,21.536-22.517,21.536c-4.679,0-9.163-0.905-13.256-3.077v-8.324c3.119,1.99,7.895,3.8,11.794,3.8
				c9.26,0,15.4-5.972,15.4-14.93c0-8.867-6.433-15.111-15.596-15.111c-8.188,0-15.011,5.792-15.011,17.735v38.547H161.388z"/>
			<path fill="#4D4D4F" d="M215.971,48.647h8.188v4.977h0.195c2.924-4.253,6.92-5.881,12.671-5.881h1.95v7.601h-1.268
				c-8.285,0-13.159,4.705-13.159,16.468V92.08h-8.577V48.647z"/>
			<path fill="#4D4D4F" d="M257.005,77.783l-3.509-6.334l23.101-11.943c-2.924-2.715-5.36-4.163-10.624-4.163
				c-8.87,0-15.304,6.153-15.304,15.021c0,8.867,6.434,15.02,15.304,15.02c10.137,0,13.938-5.609,15.693-13.572l8.675,0.995
				c-0.975,11.492-10.917,20.179-24.368,20.179c-12.964,0-24.271-9.229-24.271-22.621c0-13.392,11.308-22.622,24.271-22.622
				c10.917,0,18.228,5.338,22.613,13.753L257.005,77.783z"/>
			<path fill="#4D4D4F" d="M296.867,111.625V71.63c0-14.297,9.846-23.888,23.589-23.888c15.206,0,24.174,10.858,24.174,23.707
				c0,12.125-10.527,21.536-22.517,21.536c-4.679,0-9.162-0.905-13.257-3.077v-8.324c3.119,1.99,7.896,3.8,11.795,3.8
				c9.26,0,15.4-5.972,15.4-14.93c0-8.867-6.433-15.111-15.596-15.111c-8.188,0-15.011,5.792-15.011,17.735v38.547H296.867z"/>
		</g>
	</g>
	<path fill="#006298" d="M365.348,21.185c0.332,0.062,0.661,0.125,0.981,0.191c-0.283-0.059-0.608-0.119-0.989-0.185
		C365.34,21.191,365.344,21.188,365.348,21.185z"/>
	<path fill="#006298" d="M367.449,21.621c5.925,1.382,9.6,3.622,9.6,3.622c-4.558,2.06-8.689,4.424-12.361,6.856
		c-1.393-1.455-2.953-2.771-4.656-3.919C362.223,26.004,364.685,23.798,367.449,21.621z"/>
	<path fill="#006298" d="M366.911,21.495c-0.036-0.006-0.073-0.014-0.112-0.022C366.835,21.48,366.874,21.489,366.911,21.495z"/>
	<path opacity="0.4" fill="#1A457F" d="M366.799,21.472c-0.154-0.034-0.311-0.062-0.47-0.097
		C366.508,21.41,366.663,21.442,366.799,21.472z"/>
	<path opacity="0.4" fill="#1A457F" d="M366.799,21.472c-0.154-0.034-0.311-0.062-0.47-0.097
		C366.508,21.41,366.663,21.442,366.799,21.472z"/>
	<path opacity="0.4" fill="#1A457F" d="M367.449,21.621C367.449,21.621,367.447,21.619,367.449,21.621
		c-0.18-0.042-0.354-0.085-0.538-0.126C367.25,21.568,367.449,21.621,367.449,21.621z"/>
	<path opacity="0.4" fill="#1A457F" d="M367.449,21.621C367.449,21.621,367.447,21.619,367.449,21.621
		c-0.18-0.042-0.354-0.085-0.538-0.126C367.25,21.568,367.449,21.621,367.449,21.621z"/>
	<path fill="#006298" d="M359.148,27.6c1.868-2.136,3.933-4.294,6.191-6.409c0.381,0.065,0.706,0.126,0.989,0.185
		c0.159,0.035,0.315,0.063,0.47,0.097c0.039,0.008,0.076,0.017,0.112,0.022c0.185,0.041,0.358,0.084,0.538,0.126
		c-2.765,2.178-5.227,4.384-7.418,6.559C359.738,27.982,359.447,27.786,359.148,27.6z"/>
	<path opacity="0.4" fill="#1A457F" d="M359.148,27.6c1.868-2.136,3.933-4.294,6.191-6.409c0.381,0.065,0.706,0.126,0.989,0.185
		c0.159,0.035,0.315,0.063,0.47,0.097c0.039,0.008,0.076,0.017,0.112,0.022c0.185,0.041,0.358,0.084,0.538,0.126
		c-2.765,2.178-5.227,4.384-7.418,6.559C359.738,27.982,359.447,27.786,359.148,27.6z"/>
	<path fill="#0F9FD1" d="M349.977,23.895c0.947,0.201,1.897,0.457,2.839,0.764c2.274,0.735,4.392,1.735,6.333,2.942
		c1.868-2.136,3.933-4.294,6.191-6.409c-0.198-0.035-0.203-0.044,0.008-0.006c1.292-1.213,2.651-2.417,4.076-3.594
		c0,0-12.472-3.63-26.021,2.848c0,0-0.225,0.979-0.447,2.838c2.074-0.077,4.185,0.085,6.286,0.482"/>
	<path fill="#0F9FD1" d="M349.188,16.304c-2.402,0.412-4.684-1.199-5.099-3.602c-0.412-2.399,1.201-4.681,3.602-5.091
		c0.054-0.011,0.107-0.002,0.163-0.011c-2.116,0.461-3.52,2.497-3.148,4.65c0.381,2.218,2.485,3.702,4.702,3.323
		c2.157-0.372,3.609-2.374,3.333-4.529c0.012,0.058,0.035,0.11,0.045,0.163C353.197,13.609,351.588,15.89,349.188,16.304z"/>
	<path fill="#006298" d="M349.408,15.573c-2.217,0.379-4.321-1.105-4.702-3.323c-0.371-2.153,1.032-4.189,3.148-4.65
		c2.284-0.311,4.407,1.194,4.887,3.443C353.018,13.199,351.565,15.202,349.408,15.573z"/>
	<path fill="#CB6F27" d="M382.02,54.096c-0.02-0.045-0.038-0.093-0.059-0.143C381.979,54,381.998,54.05,382.02,54.096z"/>
	<path fill="#317C7D" d="M382.194,54.604c2.023,5.739,2.112,10.036,2.112,10.036c-4.146-2.706-8.32-4.902-12.308-6.674
		c0.439-2.035,0.647-4.074,0.645-6.092C375.666,52.552,378.861,53.439,382.194,54.604z"/>
	<path fill="#CB6F27" d="M381.428,52.589c0.133,0.323,0.257,0.639,0.376,0.949c-0.107-0.275-0.229-0.587-0.381-0.949
		C381.425,52.592,381.426,52.592,381.428,52.589z"/>
	<path opacity="0.4" fill="#1A457F" d="M382.194,54.604L382.194,54.604c-0.059-0.173-0.116-0.336-0.175-0.508
		C382.133,54.412,382.194,54.604,382.194,54.604z"/>
	<path opacity="0.4" fill="#1A457F" d="M382.194,54.604L382.194,54.604c-0.059-0.173-0.116-0.336-0.175-0.508
		C382.133,54.412,382.194,54.604,382.194,54.604z"/>
	<path opacity="0.4" fill="#1A457F" d="M381.961,53.953c-0.048-0.137-0.104-0.278-0.157-0.415
		C381.865,53.695,381.919,53.831,381.961,53.953z"/>
	<path opacity="0.4" fill="#1A457F" d="M381.961,53.953c-0.048-0.137-0.104-0.278-0.157-0.415
		C381.865,53.695,381.919,53.831,381.961,53.953z"/>
	<path fill="#CB6F27" d="M372.644,51.875c0.001-0.356-0.002-0.708-0.018-1.058c2.825,0.427,5.773,1.007,8.797,1.772
		c0.151,0.362,0.273,0.674,0.381,0.949c0.054,0.136,0.109,0.278,0.157,0.415c0.021,0.05,0.039,0.098,0.059,0.143
		c0.059,0.172,0.116,0.335,0.175,0.508C378.861,53.439,375.666,52.552,372.644,51.875z"/>
	<path fill="#00413E" d="M372.644,51.875c0.001-0.356-0.002-0.708-0.018-1.058c2.825,0.427,5.773,1.007,8.797,1.772
		c0.151,0.362,0.273,0.674,0.381,0.949c0.054,0.136,0.109,0.278,0.157,0.415c0.021,0.05,0.039,0.098,0.059,0.143
		c0.059,0.172,0.116,0.335,0.175,0.508C378.861,53.439,375.666,52.552,372.644,51.875z"/>
	<path fill="#51B8BA" d="M386.656,54.099c0,0-3.654-12.47-16.403-20.401c0,0-1.118,0.394-3.091,1.374
		c1.206,1.663,2.234,3.455,3.059,5.331c0.11,0.254,0.218,0.503,0.323,0.758c1.232,3.048,1.955,6.311,2.082,9.656
		c2.825,0.427,5.773,1.007,8.797,1.772c-0.052-0.126-0.114-0.27-0.175-0.406c0.058,0.134,0.124,0.274,0.18,0.406
		C383.153,53.032,384.896,53.528,386.656,54.099z"/>
	<path fill="#51B8BA" d="M377.851,30.395c-1.66,1.512-1.783,4.082-0.267,5.746c1.472,1.624,3.945,1.763,5.608,0.377
		c-0.041,0.037-0.07,0.087-0.113,0.12c-1.802,1.642-4.59,1.511-6.231-0.292c-1.639-1.802-1.509-4.588,0.291-6.23
		c1.803-1.639,4.592-1.508,6.234,0.294c0.038,0.043,0.068,0.096,0.105,0.142C381.951,29.004,379.472,28.915,377.851,30.395z"/>
	<path fill="#009893" d="M383.192,36.517c1.641-1.615,1.761-4.207,0.286-5.965c0.037,0.037,0.084,0.067,0.122,0.109
		c1.513,1.661,1.392,4.235-0.27,5.75C383.288,36.449,383.238,36.477,383.192,36.517z"/>
	<path fill="#006460" d="M383.192,36.517c-1.663,1.386-4.137,1.247-5.608-0.377c-1.517-1.664-1.394-4.234,0.267-5.746
		c1.621-1.48,4.101-1.391,5.628,0.157C384.953,32.31,384.833,34.902,383.192,36.517z"/>
	<path fill="#317C7D" d="M330.783,26.494c-0.832-2.749-1.579-5.704-2.188-8.88c3.96-4.626,7.638-6.857,7.638-6.857
		c-0.26,4.751-0.089,9.286,0.334,13.488C334.561,24.786,332.619,25.541,330.783,26.494z"/>
	<path fill="#A01F14" d="M328.217,18.056c-0.002,0.009-0.01,0.014-0.014,0.02C328.207,18.07,328.215,18.065,328.217,18.056z"/>
	<path fill="#A01F14" d="M327.242,19.282c0.191-0.246,0.376-0.48,0.563-0.714c-0.168,0.211-0.355,0.448-0.56,0.719
		C327.245,19.282,327.242,19.286,327.242,19.282z"/>
	<path opacity="0.4" fill="#1A457F" d="M328.595,17.613c-0.001,0.001-0.001,0.001-0.001,0.001c-0.124,0.148-0.249,0.291-0.377,0.442
		C328.452,17.778,328.595,17.613,328.595,17.613z"/>
	<path opacity="0.4" fill="#1A457F" d="M328.595,17.613c-0.001,0.001-0.001,0.001-0.001,0.001c-0.124,0.148-0.249,0.291-0.377,0.442
		C328.452,17.778,328.595,17.613,328.595,17.613z"/>
	<path opacity="0.4" fill="#1A457F" d="M328.203,18.076c-0.134,0.161-0.266,0.326-0.398,0.492
		C327.958,18.375,328.091,18.209,328.203,18.076z"/>
	<path opacity="0.4" fill="#1A457F" d="M328.203,18.076c-0.134,0.161-0.266,0.326-0.398,0.492
		C327.958,18.375,328.091,18.209,328.203,18.076z"/>
	<path fill="#A01F14" d="M329.811,27.02c-0.931-2.435-1.802-5.019-2.565-7.733c0.204-0.271,0.392-0.507,0.56-0.719
		c0.133-0.166,0.265-0.331,0.398-0.492c0.004-0.005,0.012-0.01,0.014-0.02c0.128-0.151,0.253-0.293,0.378-0.442
		c0.609,3.176,1.356,6.131,2.188,8.88C330.456,26.663,330.131,26.837,329.811,27.02z"/>
	<path fill="#00413E" d="M329.811,27.02c-0.931-2.435-1.802-5.019-2.565-7.733c0.204-0.271,0.392-0.507,0.56-0.719
		c0.133-0.166,0.265-0.331,0.398-0.492c0.004-0.005,0.012-0.01,0.014-0.02c0.128-0.151,0.253-0.293,0.378-0.442
		c0.609,3.176,1.356,6.131,2.188,8.88C330.456,26.663,330.131,26.837,329.811,27.02z"/>
	<path fill="#51B8BA" d="M327.245,19.286c-0.077,0.101-0.163,0.216-0.243,0.326c0.08-0.104,0.161-0.225,0.24-0.331
		c-0.482-1.711-0.924-3.469-1.313-5.283c0,0-8.964,9.408-9.449,24.418c0,0,0.533,0.455,1.621,1.226
		c0.977-2.069,2.182-3.973,3.568-5.697c0.117-0.145,0.236-0.287,0.354-0.426c2.205-2.638,4.849-4.831,7.787-6.501
		C328.88,24.585,328.009,22.001,327.245,19.286z"/>
	<path fill="#51B8BA" d="M309.933,34.25c-2.322-0.742-3.604-3.221-2.867-5.545c0.019-0.056,0.05-0.105,0.069-0.16
		c-0.574,2.094,0.592,4.286,2.681,4.948c2.143,0.682,4.429-0.505,5.111-2.644c0.663-2.085-0.447-4.293-2.481-5.043
		c0.053,0.014,0.108,0.017,0.162,0.035c2.32,0.736,3.602,3.217,2.864,5.536C314.734,33.698,312.255,34.985,309.933,34.25z"/>
	<path fill="#009893" d="M307.135,28.544c0.015-0.056,0.017-0.112,0.035-0.164c0.681-2.147,2.97-3.328,5.111-2.647
		c0.059,0.018,0.109,0.049,0.164,0.071C310.23,25.191,307.919,26.381,307.135,28.544z"/>
	<path fill="#006460" d="M314.927,30.848c-0.683,2.139-2.969,3.326-5.111,2.644c-2.089-0.662-3.255-2.854-2.681-4.948
		c0.784-2.164,3.096-3.354,5.311-2.739C314.479,26.555,315.59,28.763,314.927,30.848z"/>
	<path fill="#006298" d="M357.192,77.341c0.833,2.748,1.583,5.702,2.189,8.877c-3.96,4.627-7.636,6.862-7.636,6.862
		c0.258-4.755,0.086-9.289-0.333-13.49C353.415,79.048,355.356,78.293,357.192,77.341z"/>
	<path fill="#A01F14" d="M360.732,84.552c-0.173,0.225-0.347,0.447-0.522,0.664c0.157-0.196,0.331-0.416,0.522-0.669
		C360.732,84.55,360.732,84.552,360.732,84.552z"/>
	<path opacity="0.4" fill="#1A457F" d="M359.381,86.221c0.001-0.002,0.001-0.003,0.001-0.003c0.275-0.318,0.552-0.657,0.828-1.002
		C359.705,85.855,359.381,86.221,359.381,86.221z"/>
	<path opacity="0.4" fill="#1A457F" d="M359.381,86.221c0.001-0.002,0.001-0.003,0.001-0.003c0.275-0.318,0.552-0.657,0.828-1.002
		C359.705,85.855,359.381,86.221,359.381,86.221z"/>
	<path fill="#006298" d="M358.168,76.816c0.931,2.433,1.8,5.017,2.564,7.731c-0.191,0.253-0.365,0.473-0.522,0.669
		c-0.276,0.345-0.553,0.684-0.828,1.002c-0.606-3.175-1.356-6.129-2.189-8.877C357.521,77.174,357.846,76.997,358.168,76.816z"/>
	<path fill="#0F9FD1" d="M369.873,64.191c-0.977,2.065-2.176,3.978-3.567,5.697c-0.116,0.146-0.234,0.288-0.354,0.429
		c-2.208,2.632-4.849,4.828-7.784,6.499c0.931,2.433,1.8,5.017,2.564,7.731c0.086-0.112,0.181-0.242,0.271-0.363
		c-0.089,0.12-0.18,0.251-0.271,0.368c0.484,1.71,0.928,3.469,1.314,5.28c0,0,8.965-9.404,9.449-24.414
		C371.496,65.418,370.96,64.963,369.873,64.191z"/>
	<path fill="#0F9FD1" d="M378.044,69.587c2.324,0.741,3.604,3.221,2.866,5.54c-0.018,0.058-0.049,0.107-0.067,0.165
		c0.571-2.099-0.591-4.288-2.681-4.949c-2.142-0.681-4.43,0.505-5.111,2.643c-0.661,2.084,0.447,4.295,2.479,5.045
		c-0.055-0.019-0.109-0.019-0.161-0.034c-2.32-0.738-3.604-3.22-2.865-5.542C373.243,70.132,375.723,68.847,378.044,69.587z"/>
	<path fill="#0F9FD1" d="M380.843,75.292c-0.017,0.054-0.019,0.107-0.034,0.161c-0.681,2.143-2.969,3.328-5.111,2.647
		c-0.061-0.019-0.109-0.051-0.167-0.07C377.747,78.646,380.059,77.451,380.843,75.292z"/>
	<path fill="#006298" d="M373.051,72.986c0.682-2.138,2.97-3.323,5.111-2.643c2.09,0.661,3.252,2.851,2.681,4.949
		c-0.784,2.158-3.096,3.354-5.313,2.738C373.498,77.281,372.39,75.07,373.051,72.986z"/>
	<path opacity="0.4" fill="#006298" d="M358.168,76.816c0.931,2.433,1.8,5.017,2.564,7.731c-0.191,0.253-0.365,0.473-0.522,0.669
		c-0.276,0.345-0.553,0.684-0.828,1.002c-0.606-3.175-1.356-6.129-2.189-8.877C357.521,77.174,357.846,76.997,358.168,76.816z"/>
</g>
</svg>
