<?xml version="1.0" encoding="utf-8"?>
<!-- Generator: Adobe Illustrator 22.0.1, SVG Export Plug-In . SVG Version: 6.00 Build 0)  -->
<svg version="1.1" id="Capa_1" xmlns="http://www.w3.org/2000/svg" xmlns:xlink="http://www.w3.org/1999/xlink" x="0px" y="0px"
	 viewBox="0 0 333 163" enable-background="new 0 0 333 163" xml:space="preserve">
<g>
	<g opacity="0">
		<path d="M323.7,146.8c0,0-72.2,16.2-155.7,16.2C84.4,163,9.2,146.8,9.2,146.8c-5.1,0-9.2-4.2-9.2-9.2V9.2C0,4.2,4.2,0,9.2,0h314.5
			c5.1,0,9.2,4.2,9.2,9.2v128.3C333,142.7,328.8,146.8,323.7,146.8z"/>
	</g>
	<g>
		<path fill="#EEB618" d="M323.7,146.8c0,0-72.2,16.2-155.7,16.2C84.4,163,9.2,146.8,9.2,146.8c-5.1,0-9.2-4.2-9.2-9.2V9.2
			C0,4.2,4.2,0,9.2,0h314.5c5.1,0,9.2,4.2,9.2,9.2v128.3C333,142.7,328.8,146.8,323.7,146.8z"/>
	</g>
</g>
<g>
	<g>
		<path d="M103.6,114.9h-2.4l7.6-17.9h2.6l7.6,17.9h-2.6l-2.3-5.6h-5.9l0.6-1.9h4.5l-3.3-8.1L103.6,114.9z"/>
		<path d="M121.5,114.9V97h7.6c3.4,0,5.1,1.4,5.1,4.2c0,2-1.1,3.5-3.3,4.4c2.4,0.4,3.6,1.8,3.6,4.1c0,3.5-1.9,5.3-5.6,5.3H121.5z
			 M128.7,113.1c2.1,0,3.2-1.1,3.2-3.3c0-2.1-1.4-3.2-4.3-3.2h-1v-1.5c3.4-0.5,5.1-1.7,5.1-3.7c0-1.7-1-2.5-2.9-2.5h-5.1v14.2H128.7
			z"/>
		<path d="M137.5,106c0-6.1,3-9.1,9-9.1c5.9,0,8.9,3,8.9,9.1c0,6-3,9.1-8.9,9.1C140.5,115.1,137.5,112,137.5,106z M146.5,113.2
			c4.3,0,6.4-2.4,6.4-7.3c0-4.8-2.1-7.2-6.4-7.2c-4.4,0-6.6,2.4-6.6,7.2C140,110.8,142.2,113.2,146.5,113.2z"/>
		<path d="M158.9,108V97h2.3v11c0,3.4,1.7,5.2,5.1,5.2c3.4,0,5.1-1.7,5.1-5.2V97h2.3v11c0,4.7-2.5,7-7.5,7S158.9,112.7,158.9,108z"
			/>
		<path d="M190.1,97v1.9h-5.6v16h-2.3v-16h-5.6V97H190.1z"/>
		<path d="M199,108V97h2.3v11c0,3.4,1.7,5.2,5.1,5.2c3.4,0,5.1-1.7,5.1-5.2V97h2.3v11c0,4.7-2.5,7-7.5,7S199,112.7,199,108z"/>
		<path d="M217.8,114.3v-2.1c1.9,0.7,3.9,1,6.1,1c3.1,0,4.6-1.1,4.6-3.4c0-1.9-1.1-2.9-3.4-2.9h-2.3c-3.8,0-5.6-1.6-5.6-4.9
			c0-3.4,2.4-5.1,7.2-5.1c2.1,0,4,0.3,5.8,0.8v2.1c-1.8-0.7-3.7-1-5.8-1c-3.3,0-4.9,1.1-4.9,3.3c0,1.9,1.1,2.9,3.3,2.9h2.3
			c3.8,0,5.7,1.6,5.7,4.9c0,3.5-2.3,5.3-6.9,5.3C221.7,115.1,219.6,114.8,217.8,114.3z"/>
	</g>
</g>
<g>
	<g>
		<path d="M182.2,62.3c3.8-2.5,6.3-6.8,6.3-11.7c0-7.7-6.3-14-14-14s-14,6.3-14,14c0,4.9,2.5,9.2,6.3,11.7
			c-8.6,3.2-14.7,11.4-14.7,21.1h3.7c0-10.3,8.4-18.7,18.7-18.7c10.3,0,18.7,8.4,18.7,18.7h3.7C197,73.7,190.8,65.4,182.2,62.3z
			 M164.2,50.6c0-5.7,4.6-10.3,10.3-10.3s10.3,4.6,10.3,10.3s-4.6,10.3-10.3,10.3S164.2,56.2,164.2,50.6z"/>
		<path d="M200.9,52.9c3.8-2.5,6.3-6.8,6.3-11.7c0-7.7-6.3-14-14-14c-3.7,0-7.2,1.5-9.7,3.9c-0.9,0.9-1.7,1.9-2.4,3
			c1.2,0.5,2.3,1.1,3.3,1.8c0.7-1.1,1.5-2,2.5-2.8c1.7-1.3,3.9-2.1,6.3-2.1c5.7,0,10.3,4.6,10.3,10.3c0,4.7-3.2,8.7-7.5,9.9
			c-0.9,0.2-1.8,0.4-2.8,0.4c-0.3,0-0.7,0-1,0c-0.1,1.3-0.3,2.7-0.6,3.9c0.5,0,1.1-0.1,1.6-0.1c0.8,0,1.5,0.1,2.2,0.1
			c9.3,1.1,16.5,9,16.5,18.6h3.7C215.7,64.3,209.5,56.1,200.9,52.9z"/>
		<path d="M155.8,55.2c0.5,0,1.1,0.1,1.6,0.1c-0.4-1.3-0.6-2.6-0.6-3.9c-0.3,0-0.6,0-1,0c-1,0-1.9-0.1-2.8-0.4
			c-4.3-1.2-7.5-5.2-7.5-9.9c0-5.7,4.6-10.3,10.3-10.3c2.4,0,4.5,0.8,6.3,2.1c1,0.8,1.9,1.7,2.5,2.8c1-0.7,2.1-1.3,3.3-1.8
			c-0.7-1.1-1.5-2.1-2.4-3c-2.5-2.4-5.9-3.9-9.7-3.9c-7.7,0-14,6.3-14,14c0,4.9,2.5,9.2,6.3,11.7c-8.6,3.2-14.7,11.4-14.7,21.1h3.7
			c0-9.6,7.2-17.5,16.5-18.6C154.3,55.3,155,55.2,155.8,55.2z"/>
	</g>
	<rect x="152.9" y="79.4" width="42.8" height="3.7"/>
</g>
</svg>
