<?xml version="1.0" encoding="utf-8"?>
<!-- Generator: Adobe Illustrator 22.0.1, SVG Export Plug-In . SVG Version: 6.00 Build 0)  -->
<svg version="1.1" id="Capa_1" xmlns="http://www.w3.org/2000/svg" xmlns:xlink="http://www.w3.org/1999/xlink" x="0px" y="0px"
	 viewBox="0 0 333 163" enable-background="new 0 0 333 163" xml:space="preserve">
<g>
	<g opacity="0">
		<path d="M323.7,146.8c0,0-72.2,16.2-155.7,16.2S9.2,146.8,9.2,146.8c-5.1,0-9.2-4.2-9.2-9.2V9.2C0,4.2,4.2,0,9.2,0h314.5
			c5.1,0,9.2,4.2,9.2,9.2v128.3C333,142.7,328.8,146.8,323.7,146.8z"/>
	</g>
	<g>
		<path d="M323.7,146.8c0,0-72.2,16.2-155.7,16.2S9.2,146.8,9.2,146.8c-5.1,0-9.2-4.2-9.2-9.2V9.2C0,4.2,4.2,0,9.2,0h314.5
			c5.1,0,9.2,4.2,9.2,9.2v128.3C333,142.7,328.8,146.8,323.7,146.8z"/>
	</g>
</g>
<g>
	<g>
		<path fill="#FFFFFF" d="M97.4,114.2c-1.4,0.6-3,0.8-4.7,0.8c-6.5,0-9.7-3.1-9.7-9.3c0-5.9,3.1-8.8,9.4-8.8c1.8,0,3.5,0.3,5,0.8v2
			c-1.5-0.6-3.1-0.9-4.8-0.9c-4.9,0-7.3,2.3-7.3,7c0,5,2.4,7.5,7.2,7.5c0.8,0,1.6-0.1,2.6-0.3v-6.1h2.3V114.2z"/>
		<path fill="#FFFFFF" d="M112.9,97v1.9h-9.4v6h9v1.9h-9v6.3h9.6v1.9h-11.9V97H112.9z"/>
		<path fill="#FFFFFF" d="M128.7,97v1.9h-5.6v16h-2.3v-16h-5.6V97H128.7z"/>
		<path fill="#FFFFFF" d="M138.3,114.9h-2.4l7.6-17.9h2.6l7.6,17.9h-2.6l-2.3-5.6h-5.9l0.6-1.9h4.5l-3.3-8.1L138.3,114.9z"/>
		<path fill="#FFFFFF" d="M161.8,106c0-6.1,3-9.1,9-9.1c5.9,0,8.9,3,8.9,9.1c0,5-2,7.9-6.1,8.8l2.9,3.4l-1.8,1.4l-3.9-4.5
			C164.8,115.1,161.8,112,161.8,106z M170.8,113.2c4.3,0,6.4-2.4,6.4-7.3c0-4.8-2.1-7.2-6.4-7.2c-4.4,0-6.6,2.4-6.6,7.2
			C164.3,110.8,166.4,113.2,170.8,113.2z"/>
		<path fill="#FFFFFF" d="M183.2,108V97h2.3v11c0,3.4,1.7,5.2,5.1,5.2c3.4,0,5.1-1.7,5.1-5.2V97h2.3v11c0,4.7-2.5,7-7.5,7
			S183.2,112.7,183.2,108z"/>
		<path fill="#FFFFFF" d="M201.6,106c0-6.1,3-9.1,9-9.1c5.9,0,8.9,3,8.9,9.1c0,6-3,9.1-8.9,9.1C204.6,115.1,201.6,112,201.6,106z
			 M210.6,113.2c4.3,0,6.4-2.4,6.4-7.3c0-4.8-2.1-7.2-6.4-7.2c-4.4,0-6.6,2.4-6.6,7.2C204.1,110.8,206.2,113.2,210.6,113.2z"/>
		<path fill="#FFFFFF" d="M235.2,97v1.9h-5.6v16h-2.3v-16h-5.6V97H235.2z"/>
		<path fill="#FFFFFF" d="M249.7,97v1.9h-9.4v6h9v1.9h-9v6.3h9.6v1.9H238V97H249.7z"/>
	</g>
</g>
<g>
	<g>
		<path fill="#FFFFFF" d="M182.3,43.7h-13.9V42c0-1.8-0.2-3-0.5-3.5c-0.3-0.6-1-0.8-2.1-0.8c-0.9,0-1.5,0.2-1.9,0.7
			c-0.4,0.5-0.6,1.2-0.6,2.1c0,1.6,0.4,2.7,1.3,3.3c0.9,0.6,3.4,1.9,7.5,3.7c3.5,1.6,6,2.7,7.2,3.6c1.3,0.8,2.4,2,3.3,3.5
			c0.9,1.5,1.3,3.4,1.3,5.6c0,3.6-1.2,6.4-3.6,8.5c-2.4,2.1-6,3.3-10.8,3.8v3.8h-6.4v-3.9c-3.7-0.3-7-1.3-9.8-3.1
			c-2.8-1.8-4.2-5-4.2-9.5v-2h13.9v2.5c0,2.7,0.1,4.4,0.4,5.1c0.3,0.7,1,1,2.1,1c0.9,0,1.6-0.2,2.1-0.7c0.5-0.5,0.7-1.1,0.7-2
			c0-2.3-0.2-3.9-0.7-4.9c-0.4-1-1.9-2-4.5-3.2c-4.3-1.9-7.1-3.4-8.7-4.3c-1.5-0.9-2.9-2.2-4-3.8c-1.1-1.7-1.7-3.5-1.7-5.6
			c0-3,1.2-5.4,3.5-7.1c2.4-1.7,5.9-2.8,10.6-3.2v-3.2h6.4v3.2c4.3,0.4,7.5,1.4,9.7,3.1c2.1,1.7,3.2,4,3.2,7
			C182.4,42.2,182.4,42.8,182.3,43.7z"/>
	</g>
	<path fill="#FFFFFF" d="M166.5,19.8c17.9,0,32.5,14.6,32.5,32.5s-14.6,32.5-32.5,32.5s-32.5-14.6-32.5-32.5S148.5,19.8,166.5,19.8
		L166.5,19.8z M166.5,13.2c-21.6,0-39.2,17.5-39.2,39.2c0,21.6,17.5,39.2,39.2,39.2c21.6,0,39.2-17.5,39.2-39.2
		C205.7,30.7,188.1,13.2,166.5,13.2L166.5,13.2z"/>
</g>
</svg>
