<?xml version="1.0" encoding="utf-8"?>
<!-- Generator: Adobe Illustrator 22.0.1, SVG Export Plug-In . SVG Version: 6.00 Build 0)  -->
<svg version="1.1" id="Capa_1" xmlns="http://www.w3.org/2000/svg" xmlns:xlink="http://www.w3.org/1999/xlink" x="0px" y="0px"
	 viewBox="0 0 70.6 105.8" enable-background="new 0 0 70.6 105.8" xml:space="preserve">
<path fill-rule="evenodd" clip-rule="evenodd" fill="#EEB618" d="M35.4,0C15.9,0,0,15.7,0,35.2c0,6.3,1.6,12.4,4.7,17.6l30.5,53
	l30.2-52.2c3.3-5.5,5.2-11.8,5.2-18.4C70.6,15.7,55,0,35.4,0z M35.7,56.1c-11,0-20.1-9.1-20.1-20.1c0-11.3,9.1-20.1,20.1-20.1
	c11,0,20.1,8.8,20.1,20.1C55.8,47,46.7,56.1,35.7,56.1z"/>
</svg>
