<?xml version="1.0" encoding="utf-8"?>
<!-- Generator: Adobe Illustrator 22.0.1, SVG Export Plug-In . SVG Version: 6.00 Build 0)  -->
<svg version="1.1" id="Capa_1" xmlns="http://www.w3.org/2000/svg" xmlns:xlink="http://www.w3.org/1999/xlink" x="0px" y="0px"
	 viewBox="0 0 389.1 190.5" style="enable-background:new 0 0 389.1 190.5;" xml:space="preserve">
<style type="text/css">
	.st0{fill:#EEB618;}
	.st1{fill:none;stroke:#000000;stroke-width:2;stroke-miterlimit:10;}
	.st2{fill:none;stroke:#000000;stroke-width:2;stroke-linecap:round;stroke-linejoin:round;stroke-miterlimit:10;}
</style>
<g>
	<path class="st0" d="M378.3,171.6c0,0-84.3,18.9-182,18.9c-97.7,0-185.5-18.9-185.5-18.9c-5.9,0-10.8-4.9-10.8-10.8v-150
		C0,4.9,4.9,0,10.8,0h367.5c5.9,0,10.8,4.9,10.8,10.8v150C389.1,166.7,384.2,171.6,378.3,171.6z"/>
</g>
<g>
	<g>
		<path d="M81.1,92.4c5.1,0,8,2.5,8,6.8c0,4.4-2.9,7-8,7h-6.5v7.2H74v-21H81.1z M74.6,105.5h6.5c4.7,0,7.4-2.3,7.4-6.4
			c0-4-2.7-6.2-7.4-6.2h-6.5V105.5z"/>
		<path d="M103.6,105.9l5.4,7.4h-0.7l-5.3-7.3c-0.6,0.1-1.2,0.1-1.9,0.1h-6.5v7.2h-0.6v-21h7.1c5.1,0,8,2.5,8,6.8
			C109,102.8,107,105.1,103.6,105.9z M101,105.5c4.7,0,7.4-2.3,7.4-6.4c0-4-2.7-6.2-7.4-6.2h-6.5v12.6H101z"/>
		<path d="M134.7,102.8c0,5.8-4.9,10.5-10.8,10.5c-5.9,0-10.8-4.7-10.8-10.5s4.9-10.5,10.8-10.5C129.9,92.4,134.7,97.1,134.7,102.8z
			 M113.8,102.8c0,5.4,4.6,9.9,10.2,9.9c5.6,0,10.2-4.5,10.2-9.9c0-5.4-4.6-9.9-10.2-9.9C118.4,93,113.8,97.4,113.8,102.8z"/>
		<path d="M140.7,93V103h10.2v0.6h-10.2v9.7h-0.6v-21h12.2V93H140.7z"/>
		<path d="M157,93v9.3h11.1v0.6H157v9.9H170v0.6h-13.5v-21h13.1V93H157z"/>
		<path d="M186.5,93.9l-0.3,0.5c-1.4-0.9-3.4-1.4-5.3-1.4c-3.7,0-6.1,1.6-6.1,4c0,7,12.6,3.4,12.5,11.2c0,3.1-2.8,5.1-7.1,5.1
			c-2.6,0-5.4-1.2-7.2-2.9l0.4-0.4c1.6,1.7,4.2,2.8,6.7,2.8c4,0,6.5-1.8,6.5-4.5c0.1-7.2-12.5-3.6-12.5-11.2c0-2.8,2.6-4.6,6.7-4.6
			C182.9,92.4,185.1,93,186.5,93.9z"/>
		<path d="M193.5,113.3v-21h0.6v21H193.5z"/>
		<path d="M221,102.8c0,5.8-4.9,10.5-10.8,10.5s-10.8-4.7-10.8-10.5s4.9-10.5,10.8-10.5S221,97.1,221,102.8z M200.1,102.8
			c0,5.4,4.6,9.9,10.2,9.9s10.2-4.5,10.2-9.9c0-5.4-4.6-9.9-10.2-9.9S200.1,97.4,200.1,102.8z"/>
		<path d="M241.7,113.3L227,93v20.4h-0.6v-21h0.9l14.8,20.4V92.4h0.6v21H241.7z"/>
		<path d="M250.4,106.9l-2.9,6.4h-0.7l9.6-21h0.7l9.7,21h-0.7l-2.9-6.4H250.4z M256.7,93l-6,13.3h12.2L256.7,93z"/>
		<path d="M280.9,112.7v0.6h-10v-21h0.6v20.4H280.9z"/>
		<path d="M286.2,93v9.3h11.1v0.6h-11.1v9.9h12.9v0.6h-13.5v-21h13.1V93H286.2z"/>
		<path d="M315.8,93.9l-0.3,0.5c-1.4-0.9-3.4-1.4-5.3-1.4c-3.7,0-6.1,1.6-6.1,4c0,7,12.6,3.4,12.5,11.2c0,3.1-2.8,5.1-7.1,5.1
			c-2.6,0-5.4-1.2-7.2-2.9l0.4-0.4c1.6,1.7,4.2,2.8,6.7,2.8c4,0,6.5-1.8,6.5-4.5c0.1-7.2-12.5-3.6-12.5-11.2c0-2.8,2.6-4.6,6.7-4.6
			C312.1,92.4,314.3,93,315.8,93.9z"/>
	</g>
</g>
<g>
	<path class="st1" d="M204.7,129.9c1.3,0,2.4,1.1,2.4,2.4v20.3c0,1.3-1.1,2.4-2.4,2.4h-20.3c-1.3,0-2.4-1.1-2.4-2.4v-20.3
		c0-1.3,1.1-2.4,2.4-2.4h3.7"/>
	<polyline class="st2" points="187.6,142.6 194.5,148.4 194.5,126.4 	"/>
	<line class="st2" x1="201.4" y1="142.6" x2="194.5" y2="148.4"/>
</g>
<g>
	<g>
		<path d="M201.8,61c3.6-2.4,5.9-6.4,5.9-11c0-7.3-5.9-13.2-13.2-13.2s-13.2,5.9-13.2,13.2c0,4.6,2.4,8.6,5.9,11
			c-8.1,3-13.8,10.7-13.8,19.8h3.5c0-9.7,7.9-17.6,17.6-17.6s17.6,7.9,17.6,17.6h3.5C215.7,71.7,209.9,64,201.8,61z M184.9,50
			c0-5.3,4.3-9.7,9.7-9.7s9.7,4.3,9.7,9.7s-4.3,9.7-9.7,9.7S184.9,55.3,184.9,50z"/>
		<path d="M219.4,52.2c3.6-2.4,5.9-6.4,5.9-11c0-7.3-5.9-13.2-13.2-13.2c-3.5,0-6.7,1.4-9.1,3.7c-0.9,0.8-1.6,1.8-2.3,2.8
			c1.1,0.4,2.1,1,3.1,1.6c0.6-1,1.4-1.9,2.4-2.6c1.6-1.3,3.7-2,5.9-2c5.3,0,9.7,4.3,9.7,9.7c0,4.4-3,8.2-7.1,9.3
			c-0.8,0.2-1.7,0.4-2.6,0.4c-0.3,0-0.6,0-0.9,0c-0.1,1.3-0.3,2.5-0.6,3.7c0.5,0,1-0.1,1.5-0.1c0.7,0,1.4,0.1,2.1,0.1
			c8.7,1,15.5,8.5,15.5,17.5h3.5C233.3,62.9,227.5,55.2,219.4,52.2z"/>
		<path d="M176.9,54.4c0.5,0,1,0.1,1.5,0.1c-0.3-1.2-0.5-2.4-0.6-3.7c-0.3,0-0.6,0-0.9,0c-0.9,0-1.8-0.1-2.6-0.4
			c-4.1-1.1-7.1-4.9-7.1-9.3c0-5.3,4.3-9.7,9.7-9.7c2.2,0,4.3,0.8,5.9,2c0.9,0.7,1.7,1.6,2.4,2.6c1-0.7,2-1.2,3.1-1.6
			c-0.6-1.1-1.4-2-2.3-2.8c-2.4-2.3-5.6-3.7-9.1-3.7c-7.3,0-13.2,5.9-13.2,13.2c0,4.6,2.4,8.6,5.9,11c-8.1,3-13.8,10.7-13.8,19.8
			h3.5c0-9,6.8-16.4,15.5-17.5C175.5,54.5,176.2,54.4,176.9,54.4z"/>
	</g>
	<rect x="174.3" y="77.2" width="40.3" height="3.5"/>
</g>
</svg>
